8.246913580246914011e-01 0.
8.333333333333333703e-01 8.398715738716268017e-03
8.432098765432098908e-01 1.219939492410608214e-02
8.493827160493827577e-01 1.511473060523951112e-02
8.592592592592592782e-01 2.066963442500827780e-02
8.728395061728395632e-01 3.015780476264857957e-02
8.802469135802469813e-01 3.626707912186127175e-02
8.888888888888889506e-01 4.425426777397912376e-02
9.000000000000000222e-01 5.592237009073964399e-02
9.185185185185186230e-01 7.900181388084377698e-02
9.382716049382716639e-01 1.088656246737084721e-01
9.641975308641975717e-01 1.567699064923601115e-01
9.777777777777778567e-01 1.860126554028678214e-01
9.864197530864198260e-01 2.061435984384097087e-01
9.975308641975308976e-01 2.336148741054750455e-01
1.008641975308641969e+00 2.626480436372367055e-01
1.020987654320987703e+00 2.964429957116885839e-01
1.032098765432098775e+00 3.279743615031157633e-01
1.044444444444444509e+00 3.639425646035073236e-01
1.058024691358024683e+00 4.042568001196263361e-01
1.069135802469135754e+00 4.375245494944864366e-01
1.081481481481481488e+00 4.744691205866302663e-01
1.091358024691358120e+00 5.037883950502415331e-01
1.103703703703703853e+00 5.398535697959778723e-01
1.113580246913580263e+00 5.680243049726912963e-01
1.122222222222222232e+00 5.920266113830588983e-01
1.135802469135802628e+00 6.282296793178663297e-01
1.145679012345679038e+00 6.531701003148077112e-01
1.159259259259259434e+00 6.851943566268295926e-01
1.182716049382716239e+00 7.336384770825428170e-01
1.209876543209876587e+00 7.796873166815618816e-01
1.235802469135802717e+00 8.149282835777568179e-01
1.274074074074074137e+00 8.542501380667623101e-01
1.307407407407407574e+00 8.791227863419885935e-01
1.337037037037037024e+00 8.963074918462724527e-01
1.355555555555555625e+00 9.056190264154146963e-01
1.367901234567901358e+00 9.115094335846329887e-01
1.388888888888889062e+00 9.212700522343492127e-01
1.401234567901234573e+00 9.268600427470017333e-01
1.416049382716049632e+00 9.333893495882681357e-01
1.430864197530864246e+00 9.396947241700209785e-01
1.446913580246913744e+00 9.462372238302314553e-01
1.462962962962963243e+00 9.524418201952690177e-01
1.483950617283950724e+00 9.599807061548009113e-01
1.504938271604938427e+00 9.667876594554751790e-01
1.533333333333333437e+00 9.747331832891014125e-01
1.558024691358024905e+00 9.805186834196206735e-01
1.586419753086419915e+00 9.859894158257218599e-01
1.613580246913580485e+00 9.901465562005048460e-01
1.641975308641975495e+00 9.934862061618929818e-01
1.672839506172839830e+00 9.960904103826587752e-01
1.714814814814815014e+00 9.981934582506140075e-01
1.766666666666666829e+00 9.990434415147444458e-01
1.806172839506173133e+00 1.
